{
    "code": 0,
    "msg": "",
    "data": {
        "count": 454,
        "totalPages": 23,
        "numsPerPage": 20,
        "currentPage": 1,
        "data": [
            {
                "id": 8363,
                "downloadId": "SEhjwpTLkkOW79tvEhUBz",
                "title": "HB8 Lite 4K Kit",
                "pathname": "HB8-Lite-4K-Kit",
                "parentDownloadId": "jSsTS1LyX712C5hpSJfBL",
                "downloadTypeId": "I0PQVbfGbpddO265wwVtm",
                "cover": "mfs.ezvizlife.com\/20260527\/xi25i93.png",
                "state": 1,
                "weight": 0,
                "createdAt": "2026-05-27 04:15:28",
                "updatedAt": "2026-05-27 04:15:28",
                "typeTitle": "Product Datasheet"
            },
            {
                "id": 8362,
                "downloadId": "lksR2aJ3cOOMJBL8LZDYv",
                "title": "CB8 Lite 4K Kit",
                "pathname": "CB8-Lite-4K-Kit",
                "parentDownloadId": "jSsTS1LyX712C5hpSJfBL",
                "downloadTypeId": "I0PQVbfGbpddO265wwVtm",
                "cover": "mfs.ezvizlife.com\/20260527\/xg4ob31.png",
                "state": 1,
                "weight": 0,
                "createdAt": "2026-05-27 04:13:31",
                "updatedAt": "2026-05-27 04:13:31",
                "typeTitle": "Product Datasheet"
            },
            {
                "id": 8356,
                "downloadId": "2JPuaVyUyCnCXjiBnMA0i",
                "title": "TY1 G1 2K",
                "pathname": "TY1-G1-2K",
                "parentDownloadId": "",
                "downloadTypeId": "I0PQVbfGbpddO265wwVtm",
                "cover": "mfs.ezvizlife.com\/20260525\/iqkag9v.png",
                "state": 1,
                "weight": 0,
                "createdAt": "2026-05-24 19:20:23",
                "updatedAt": "2026-05-24 19:20:23",
                "typeTitle": "Product Datasheet"
            },
            {
                "id": 8355,
                "downloadId": "-l9lZdG9QMmLRhauYbH9j",
                "title": "DL05 (6068)",
                "pathname": "DL05-(6068)",
                "parentDownloadId": "",
                "downloadTypeId": "I0PQVbfGbpddO265wwVtm",
                "cover": "mfs.ezvizlife.com\/20260519\/qi0qre9.png",
                "state": 1,
                "weight": 0,
                "createdAt": "2026-05-19 00:01:45",
                "updatedAt": "2026-05-19 00:01:45",
                "typeTitle": "Product Datasheet"
            },
            {
                "id": 8354,
                "downloadId": "GoPh6JMnZU_ttkbwgxKmn",
                "title": "HB8 Lite 3K\u207a",
                "pathname": "HB8-Lite-3K",
                "parentDownloadId": "",
                "downloadTypeId": "I0PQVbfGbpddO265wwVtm",
                "cover": "mfs.ezvizlife.com\/20260514\/scdmflu.png",
                "state": 1,
                "weight": 0,
                "createdAt": "2026-05-14 01:08:22",
                "updatedAt": "2026-05-14 01:08:22",
                "typeTitle": "Product Datasheet"
            },
            {
                "id": 8353,
                "downloadId": "J9S6KC8Apr0GEQh1osQsO",
                "title": "HB8 Lite 3K\u207a Kit",
                "pathname": "HB8-Lite-3K-Kit",
                "parentDownloadId": "jSsTS1LyX712C5hpSJfBL",
                "downloadTypeId": "I0PQVbfGbpddO265wwVtm",
                "cover": "mfs.ezvizlife.com\/20260514\/ou5vmf3.png",
                "state": 1,
                "weight": 0,
                "createdAt": "2026-05-13 23:01:10",
                "updatedAt": "2026-05-13 23:01:10",
                "typeTitle": "Product Datasheet"
            },
            {
                "id": 8351,
                "downloadId": "D8SjtqH2DrHR2RCVzIFwQ",
                "title": "CB8 Lite 3K\u207a Kit",
                "pathname": "CB8-Lite-3K-Kit",
                "parentDownloadId": "jSsTS1LyX712C5hpSJfBL",
                "downloadTypeId": "I0PQVbfGbpddO265wwVtm",
                "cover": "mfs.ezvizlife.com\/20260514\/osbaxkq.png",
                "state": 1,
                "weight": 0,
                "createdAt": "2026-05-13 22:35:51",
                "updatedAt": "2026-05-13 22:35:51",
                "typeTitle": "Product Datasheet"
            },
            {
                "id": 8350,
                "downloadId": "-4Yj3301hsck39mN2v4jB",
                "title": "CB8 Lite 3K+",
                "pathname": "CB8-Lite-3K+",
                "parentDownloadId": "jSsTS1LyX712C5hpSJfBL",
                "downloadTypeId": "I0PQVbfGbpddO265wwVtm",
                "cover": "mfs.ezvizlife.com\/20260511\/tdmskru.png",
                "state": 1,
                "weight": 0,
                "createdAt": "2026-05-11 01:45:52",
                "updatedAt": "2026-05-11 01:45:52",
                "typeTitle": "Product Datasheet"
            },
            {
                "id": 8349,
                "downloadId": "6jvX62dOiMG2l9yl-QdAx",
                "title": "H8c Pro 2K (R210)",
                "pathname": "H8c-Pro-2K-(R210)",
                "parentDownloadId": "jSsTS1LyX712C5hpSJfBL",
                "downloadTypeId": "I0PQVbfGbpddO265wwVtm",
                "cover": "mfs.ezvizlife.com\/20260428\/phkmrhl.png",
                "state": 1,
                "weight": 0,
                "createdAt": "2026-04-27 23:25:08",
                "updatedAt": "2026-04-27 23:25:08",
                "typeTitle": "Product Datasheet"
            },
            {
                "id": 8348,
                "downloadId": "iUkyitKZqSn45yJ0pUDRM",
                "title": "Y2000 (6068)",
                "pathname": "Y2000-(6068)",
                "parentDownloadId": "sE1vSD0fTCa5K7qT2YrTl",
                "downloadTypeId": "I0PQVbfGbpddO265wwVtm",
                "cover": "mfs.ezvizlife.com\/20260416\/ru58360.png",
                "state": 1,
                "weight": 0,
                "createdAt": "2026-04-16 00:50:00",
                "updatedAt": "2026-04-16 00:50:00",
                "typeTitle": "Product Datasheet"
            },
            {
                "id": 8346,
                "downloadId": "Qsu69U-D-AdkC_EOP6sFZ",
                "title": "DL50FVS (6068)",
                "pathname": "DL50FVS-6068",
                "parentDownloadId": "sE1vSD0fTCa5K7qT2YrTl",
                "downloadTypeId": "I0PQVbfGbpddO265wwVtm",
                "cover": "mfs.ezvizlife.com\/20260416\/rlivfe8.png",
                "state": 1,
                "weight": 0,
                "createdAt": "2026-04-16 00:41:25",
                "updatedAt": "2026-04-16 00:41:25",
                "typeTitle": "Product Datasheet"
            },
            {
                "id": 8345,
                "downloadId": "wdbLtjR0EokJUjHqn83JN",
                "title": "Alarm Light Camera",
                "pathname": "Alarm-Light-Camera",
                "parentDownloadId": "5JJ4lGo3BGdPz3ZVXEvO_",
                "downloadTypeId": "I0PQVbfGbpddO265wwVtm",
                "cover": "mfs.ezvizlife.com\/20260416\/rh6dccn.png",
                "state": 1,
                "weight": 0,
                "createdAt": "2026-04-16 00:37:21",
                "updatedAt": "2026-04-16 00:37:21",
                "typeTitle": "Product Datasheet"
            },
            {
                "id": 8344,
                "downloadId": "WsFJgNcN13jrGpJJcgQxF",
                "title": "Alarm Light",
                "pathname": "Alarm-Light",
                "parentDownloadId": "5JJ4lGo3BGdPz3ZVXEvO_",
                "downloadTypeId": "I0PQVbfGbpddO265wwVtm",
                "cover": "mfs.ezvizlife.com\/20260416\/rdyw5bl.png",
                "state": 1,
                "weight": 0,
                "createdAt": "2026-04-16 00:33:43",
                "updatedAt": "2026-04-16 00:33:43",
                "typeTitle": "Product Datasheet"
            },
            {
                "id": 8343,
                "downloadId": "rfcOn2GOiueikH4U8DlrX",
                "title": "HB8 Lite 4K",
                "pathname": "HB8-Lite-4K",
                "parentDownloadId": "",
                "downloadTypeId": "I0PQVbfGbpddO265wwVtm",
                "cover": "mfs.ezvizlife.com\/20260416\/p1fz77u.png",
                "state": 1,
                "weight": 0,
                "createdAt": "2026-04-15 23:08:29",
                "updatedAt": "2026-04-15 23:08:29",
                "typeTitle": "Product Datasheet"
            },
            {
                "id": 8342,
                "downloadId": "rdnYeyV-xx4okNMhhRqap",
                "title": "DL50 FVS Plus (6068)",
                "pathname": "DL50-FVS-Plus-(6068)",
                "parentDownloadId": "",
                "downloadTypeId": "I0PQVbfGbpddO265wwVtm",
                "cover": "mfs.ezvizlife.com\/20260410\/nqy9jus.png",
                "state": 1,
                "weight": 0,
                "createdAt": "2026-04-09 22:17:54",
                "updatedAt": "2026-04-09 22:17:54",
                "typeTitle": "Product Datasheet"
            },
            {
                "id": 8341,
                "downloadId": "2LVydlPBAFd_A27Bb7m92",
                "title": "CB8 Lite 4K",
                "pathname": "CB8-Lite-4K",
                "parentDownloadId": "jSsTS1LyX712C5hpSJfBL",
                "downloadTypeId": "I0PQVbfGbpddO265wwVtm",
                "cover": "mfs.ezvizlife.com\/20260423\/iw7mgqb.png",
                "state": 1,
                "weight": 0,
                "createdAt": "2026-04-09 01:15:04",
                "updatedAt": "2026-04-09 01:15:04",
                "typeTitle": "Product Datasheet"
            },
            {
                "id": 8339,
                "downloadId": "oaeDEXMf8Dbg_43EIbec6",
                "title": "Akiitu Magnetic Series",
                "pathname": "Akiitu-Magnetic-Series",
                "parentDownloadId": "",
                "downloadTypeId": "I0PQVbfGbpddO265wwVtm",
                "cover": "mfs.ezvizlife.com\/20260331\/ohdmwqm.png",
                "state": 1,
                "weight": 0,
                "createdAt": "2026-03-30 22:48:17",
                "updatedAt": "2026-03-30 22:48:17",
                "typeTitle": "Product Datasheet"
            },
            {
                "id": 8338,
                "downloadId": "wImXKFD0Z1uNuH1V76Zfl",
                "title": "C8c 4K (R210)",
                "pathname": "C8c-4K-(R210)",
                "parentDownloadId": "",
                "downloadTypeId": "I0PQVbfGbpddO265wwVtm",
                "cover": "mfs.ezvizlife.com\/20260325\/ih5pzaz.png",
                "state": 1,
                "weight": 0,
                "createdAt": "2026-03-24 19:10:23",
                "updatedAt": "2026-03-24 19:10:23",
                "typeTitle": "Product Datasheet"
            },
            {
                "id": 8337,
                "downloadId": "NdSwuvfRuH0o1dTQ7ZB_s",
                "title": "HG2 600",
                "pathname": "HG2-600",
                "parentDownloadId": "",
                "downloadTypeId": "I0PQVbfGbpddO265wwVtm",
                "cover": "mfs.ezvizlife.com\/20260324\/u4ikmuf.png",
                "state": 1,
                "weight": 0,
                "createdAt": "2026-03-24 02:13:57",
                "updatedAt": "2026-03-24 02:13:57",
                "typeTitle": "Product Datasheet"
            },
            {
                "id": 8336,
                "downloadId": "EI4_3o_DxlojlWFrsq4H8",
                "title": "PCBA",
                "pathname": "PCBA",
                "parentDownloadId": "",
                "downloadTypeId": "I0PQVbfGbpddO265wwVtm",
                "cover": "mfs.ezvizlife.com\/20260324\/oubuk5r.png",
                "state": 1,
                "weight": 0,
                "createdAt": "2026-03-23 23:01:20",
                "updatedAt": "2026-03-23 23:01:20",
                "typeTitle": "Product Datasheet"
            }
        ]
    },
    "meta": [],
    "redirect": "",
    "subcode": ""
}